[
  {
    "_id": "5afc4a0dc9a44e11810e7bf3",
    "index": 0,
    "guid": "0a3e8c6b-de6b-4852-9048-1524dae4e45f",
    "isActive": true,
    "balance": "$3,849.41",
    "picture": "http://placehold.it/32x32",
    "age": 38,
    "eyeColor": "blue",
    "name": "Mcconnell Gallagher",
    "gender": "male",
    "company": "PETIGEMS",
    "email": "mcconnellgallagher@petigems.com",
    "phone": "+1 (841) 430-2373",
    "address": "473 Bassett Avenue, Fairfield, Northern Mariana Islands, 2815",
    "about": "Nulla aliqua deserunt magna reprehenderit consectetur mollit adipisicing. Proident ut enim mollit culpa fugiat ut in commodo. In sunt anim laboris sit fugiat commodo non sunt irure. Ipsum proident magna ipsum cillum cupidatat sunt enim nostrud proident deserunt eu.\r\n",
    "registered": "2017-11-24T06:18:52 -02:00",
    "latitude": -69.506946,
    "longitude": -23.774809,
    "tags": [
      "duis",
      "sunt",
      "dolor",
      "cillum",
      "aliquip",
      "culpa",
      "sit"
    ],
    "friends": [
      {
        "id": 0,
        "name": "Mae Calderon"
      },
      {
        "id": 1,
        "name": "Waters Mayer"
      },
      {
        "id": 2,
        "name": "Mendez Sellers"
      }
    ],
    "greeting": "Hello, Mcconnell Gallagher! You have 3 unread messages.",
    "favoriteFruit": "strawberry"
  },
  {
    "_id": "5afc4a0dac33d39f4c0810d6",
    "index": 1,
    "guid": "60634b23-de94-4eb6-ad0d-4d19e0ba9ca8",
    "isActive": true,
    "balance": "$2,315.70",
    "picture": "http://placehold.it/32x32",
    "age": 36,
    "eyeColor": "blue",
    "name": "Dominguez Finley",
    "gender": "male",
    "company": "ZENTRY",
    "email": "dominguezfinley@zentry.com",
    "phone": "+1 (940) 420-3638",
    "address": "208 Front Street, Grazierville, Palau, 212",
    "about": "Ea laborum ut ipsum nostrud consectetur laborum cupidatat dolor voluptate mollit non. Magna nisi eu nisi et nostrud ea laborum labore non minim nostrud est. Mollit ipsum nostrud dolor dolore ea qui ea non aliquip tempor commodo ad. Minim do non non laboris consequat in nulla duis. Tempor occaecat anim consectetur ex voluptate ex. Non ullamco dolor magna consectetur aliquip. Aliquip anim enim aliqua occaecat dolore.\r\n",
    "registered": "2017-04-13T08:08:45 -03:00",
    "latitude": -74.884779,
    "longitude": -10.97257,
    "tags": [
      "officia",
      "esse",
      "fugiat",
      "eiusmod",
      "qui",
      "do",
      "Lorem"
    ],
    "friends": [
      {
        "id": 0,
        "name": "Kathleen Lambert"
      },
      {
        "id": 1,
        "name": "Eleanor Roman"
      },
      {
        "id": 2,
        "name": "Sofia Lyons"
      }
    ],
    "greeting": "Hello, Dominguez Finley! You have 5 unread messages.",
    "favoriteFruit": "apple"
  },
  {
    "_id": "5afc4a0d97c5e82d20da77e0",
    "index": 2,
    "guid": "d59c4589-5d6f-4f9c-a471-9509e36220fb",
    "isActive": false,
    "balance": "$1,251.51",
    "picture": "http://placehold.it/32x32",
    "age": 37,
    "eyeColor": "blue",
    "name": "Lynn Marshall",
    "gender": "male",
    "company": "CHORIZON",
    "email": "lynnmarshall@chorizon.com",
    "phone": "+1 (845) 549-2186",
    "address": "897 Rockaway Parkway, Bourg, North Dakota, 2947",
    "about": "Eu magna do velit id nisi sunt. Proident labore dolore mollit aliqua nulla aute quis culpa ex sunt. Reprehenderit ad est ullamco magna commodo cillum. Occaecat eiusmod nulla qui esse ullamco ut magna.\r\n",
    "registered": "2015-04-16T07:08:43 -03:00",
    "latitude": 62.829981,
    "longitude": -128.823427,
    "tags": [
      "culpa",
      "laboris",
      "et",
      "dolor",
      "laborum",
      "voluptate",
      "cillum"
    ],
    "friends": [
      {
        "id": 0,
        "name": "Justice Burch"
      },
      {
        "id": 1,
        "name": "Gutierrez Singleton"
      },
      {
        "id": 2,
        "name": "Darla Vasquez"
      }
    ],
    "greeting": "Hello, Lynn Marshall! You have 9 unread messages.",
    "favoriteFruit": "apple"
  },
  {
    "_id": "5afc4a0da49feb468db9ad76",
    "index": 3,
    "guid": "bbd354c2-b6df-47fc-a9df-6708cdb7668c",
    "isActive": true,
    "balance": "$2,950.62",
    "picture": "http://placehold.it/32x32",
    "age": 31,
    "eyeColor": "brown",
    "name": "Susan Flowers",
    "gender": "female",
    "company": "CEPRENE",
    "email": "susanflowers@ceprene.com",
    "phone": "+1 (907) 567-3493",
    "address": "618 Bushwick Avenue, Baker, Arkansas, 1909",
    "about": "Tempor sunt incididunt proident incididunt magna qui sunt labore irure veniam exercitation. Reprehenderit irure aute sunt dolore cupidatat aute exercitation consectetur ut labore sunt occaecat sunt. Mollit do incididunt tempor tempor sunt labore. Voluptate ipsum commodo laboris exercitation. Nulla sint incididunt quis tempor ipsum voluptate fugiat non.\r\n",
    "registered": "2016-06-25T07:31:08 -03:00",
    "latitude": 2.008512,
    "longitude": 83.55932,
    "tags": [
      "consequat",
      "incididunt",
      "deserunt",
      "ullamco",
      "ipsum",
      "cillum",
      "ad"
    ],
    "friends": [
      {
        "id": 0,
        "name": "Crane Osborn"
      },
      {
        "id": 1,
        "name": "Kate Payne"
      },
      {
        "id": 2,
        "name": "Irwin Trujillo"
      }
    ],
    "greeting": "Hello, Susan Flowers! You have 8 unread messages.",
    "favoriteFruit": "strawberry"
  },
  {
    "_id": "5afc4a0dfbfe3e492689072a",
    "index": 4,
    "guid": "8c18cd38-a792-4532-99a0-c6d70028cd32",
    "isActive": false,
    "balance": "$3,305.45",
    "picture": "http://placehold.it/32x32",
    "age": 20,
    "eyeColor": "brown",
    "name": "Teresa Miles",
    "gender": "female",
    "company": "EXTREMO",
    "email": "teresamiles@extremo.com",
    "phone": "+1 (879) 543-3230",
    "address": "362 Gerry Street, Adelino, Arizona, 3268",
    "about": "Et enim dolor velit non laborum labore minim voluptate id est qui veniam. Enim nisi ipsum id aliqua non. Amet culpa minim exercitation mollit mollit in ad culpa mollit nisi tempor irure sunt. Tempor excepteur elit ut do aliquip ullamco reprehenderit. Adipisicing consequat occaecat culpa sunt sint dolore culpa Lorem proident adipisicing. Dolore ad Lorem exercitation excepteur. Cupidatat nostrud aliqua id ut voluptate voluptate id excepteur adipisicing mollit pariatur.\r\n",
    "registered": "2015-07-12T02:03:22 -03:00",
    "latitude": 18.950771,
    "longitude": -15.034628,
    "tags": [
      "et",
      "eiusmod",
      "sunt",
      "excepteur",
      "et",
      "nisi",
      "fugiat"
    ],
    "friends": [
      {
        "id": 0,
        "name": "Vickie Floyd"
      },
      {
        "id": 1,
        "name": "Salinas Talley"
      },
      {
        "id": 2,
        "name": "Beulah Head"
      }
    ],
    "greeting": "Hello, Teresa Miles! You have 1 unread messages.",
    "favoriteFruit": "apple"
  }
]